{
    "prepare_queue": {
        "installed": [],
        "uninstalled": []
    },
    "config_munge": {
        "files": {
            "AndroidManifest.xml": {
                "parents": {
                    "/manifest/application": [
                        {
                            "xml": "<meta-data android:name=\"com.google.android.gms.version\" android:value=\"@integer/google_play_services_version\" />",
                            "count": 1
                        },
                        {
                            "xml": "<meta-data android:name=\"com.google.android.maps.v2.API_KEY\" android:value=\"AIzaSyB8Udnzv6SDgy7t0ZpFi5OlODONVur3DTU\" />",
                            "count": 1
                        }
                    ],
                    "/manifest": [
                        {
                            "xml": "<uses-permission android:name=\"android.permission.INTERNET\" />",
                            "count": 1
                        },
                        {
                            "xml": "<uses-permission android:name=\"android.permission.ACCESS_NETWORK_STATE\" />",
                            "count": 1
                        },
                        {
                            "xml": "<uses-permission android:name=\"android.permission.WRITE_EXTERNAL_STORAGE\" />",
                            "count": 1
                        },
                        {
                            "xml": "<uses-permission android:name=\"com.google.android.providers.gsf.permission.READ_GSERVICES\" />",
                            "count": 1
                        },
                        {
                            "xml": "<uses-permission android:name=\"android.permission.ACCESS_COARSE_LOCATION\" />",
                            "count": 1
                        },
                        {
                            "xml": "<uses-permission android:name=\"android.permission.ACCESS_FINE_LOCATION\" />",
                            "count": 1
                        },
                        {
                            "xml": "<uses-feature android:glEsVersion=\"0x00020000\" android:required=\"true\" />",
                            "count": 1
                        }
                    ],
                    "/*": [
                        {
                            "xml": "<uses-permission android:name=\"android.permission.ACCESS_COARSE_LOCATION\" />",
                            "count": 1
                        },
                        {
                            "xml": "<uses-permission android:name=\"android.permission.ACCESS_FINE_LOCATION\" />",
                            "count": 1
                        }
                    ]
                }
            },
            "res/xml/config.xml": {
                "parents": {
                    "/*": [
                        {
                            "xml": "<feature name=\"GoogleMaps\"><param name=\"android-package\" value=\"plugin.google.maps.GoogleMaps\" /></feature>",
                            "count": 1
                        },
                        {
                            "xml": "<feature name=\"External\"><param name=\"android-package\" value=\"plugin.google.maps.External\" /></feature>",
                            "count": 1
                        },
                        {
                            "xml": "<feature name=\"Geocoder\"><param name=\"android-package\" value=\"plugin.google.maps.MyGeocoder\" /></feature>",
                            "count": 1
                        },
                        {
                            "xml": "<feature name=\"DatePickerPlugin\"><param name=\"android-package\" value=\"com.plugin.datepicker.DatePickerPlugin\" /></feature>",
                            "count": 1
                        },
                        {
                            "xml": "<feature name=\"Notification\"><param name=\"android-package\" value=\"org.apache.cordova.dialogs.Notification\" /></feature>",
                            "count": 1
                        }
                    ]
                }
            }
        }
    },
    "installed_plugins": {
        "plugin.google.maps": {
            "API_KEY_FOR_ANDROID": "AIzaSyB8Udnzv6SDgy7t0ZpFi5OlODONVur3DTU",
            "PACKAGE_NAME": "io.cordova.myappe2785d518e9f4f6ea03055878dd7a400"
        },
        "cordova-plugin-datepicker": {
            "PACKAGE_NAME": "io.cordova.myappe2785d518e9f4f6ea03055878dd7a400"
        },
        "cordova-plugin-geolocation": {
            "PACKAGE_NAME": "io.cordova.myappe2785d518e9f4f6ea03055878dd7a400"
        },
        "cordova-plugin-dialogs": {
            "PACKAGE_NAME": "io.cordova.myappe2785d518e9f4f6ea03055878dd7a400"
        }
    },
    "dependent_plugins": {},
    "modules": [
        {
            "file": "plugins/plugin.google.maps/www/googlemaps-cdv-plugin.js",
            "id": "plugin.google.maps.phonegap-googlemaps-plugin",
            "pluginId": "plugin.google.maps",
            "clobbers": [
                "plugin.google.maps"
            ]
        },
        {
            "file": "plugins/cordova-plugin-datepicker/www/android/DatePicker.js",
            "id": "cordova-plugin-datepicker.DatePicker",
            "pluginId": "cordova-plugin-datepicker",
            "clobbers": [
                "datePicker"
            ]
        },
        {
            "file": "plugins/cordova-plugin-dialogs/www/notification.js",
            "id": "cordova-plugin-dialogs.notification",
            "pluginId": "cordova-plugin-dialogs",
            "merges": [
                "navigator.notification"
            ]
        },
        {
            "file": "plugins/cordova-plugin-dialogs/www/android/notification.js",
            "id": "cordova-plugin-dialogs.notification_android",
            "pluginId": "cordova-plugin-dialogs",
            "merges": [
                "navigator.notification"
            ]
        }
    ],
    "plugin_metadata": {
        "plugin.google.maps": "1.3.5",
        "cordova-plugin-datepicker": "0.9.2",
        "cordova-plugin-geolocation": "1.0.1",
        "cordova-plugin-dialogs": "1.2.0"
    }
}