{
    "prepare_queue": {
        "installed": [],
        "uninstalled": []
    },
    "config_munge": {
        "files": {}
    },
    "installed_plugins": {
        "plugin.google.maps": {
            "API_KEY_FOR_ANDROID": "AIzaSyB8Udnzv6SDgy7t0ZpFi5OlODONVur3DTU",
            "PACKAGE_NAME": "io.cordova.myappe2785d518e9f4f6ea03055878dd7a400"
        },
        "cordova-plugin-datepicker": {
            "PACKAGE_NAME": "io.cordova.myappe2785d518e9f4f6ea03055878dd7a400"
        },
        "cordova-plugin-geolocation": {
            "PACKAGE_NAME": "io.cordova.myappe2785d518e9f4f6ea03055878dd7a400"
        },
        "cordova-plugin-dialogs": {
            "PACKAGE_NAME": "io.cordova.myappe2785d518e9f4f6ea03055878dd7a400"
        }
    },
    "dependent_plugins": {}
}